<?xml version="1.0" encoding="UTF-8" standalone="no"?>
<!-- Created with Inkscape (http://www.inkscape.org/) -->

<svg
   width="22mm"
   height="22mm"
   viewBox="0 0 22 22"
   version="1.1"
   id="svg18270"
   inkscape:version="1.2.1 (9c6d41e410, 2022-07-14)"
   sodipodi:docname="hdr-icon.svg"
   xmlns:inkscape="http://www.inkscape.org/namespaces/inkscape"
   xmlns:sodipodi="http://sodipodi.sourceforge.net/DTD/sodipodi-0.dtd"
   xmlns="http://www.w3.org/2000/svg"
   xmlns:svg="http://www.w3.org/2000/svg">
  <sodipodi:namedview
     id="namedview18272"
     pagecolor="#ffffff"
     bordercolor="#000000"
     borderopacity="0.25"
     inkscape:showpageshadow="2"
     inkscape:pageopacity="0.0"
     inkscape:pagecheckerboard="0"
     inkscape:deskcolor="#d1d1d1"
     inkscape:document-units="mm"
     showgrid="false"
     inkscape:zoom="7.319248"
     inkscape:cx="18.376205"
     inkscape:cy="44.949973"
     inkscape:window-width="3840"
     inkscape:window-height="2087"
     inkscape:window-x="0"
     inkscape:window-y="0"
     inkscape:window-maximized="1"
     inkscape:current-layer="layer1" />
  <defs
     id="defs18267" />
  <g
     inkscape:label="Layer 1"
     inkscape:groupmode="layer"
     id="layer1">
    <g
       aria-label="HDR"
       id="text18926"
       style="stroke-opacity:1;stroke-width:0.153703;stroke:none;fill-opacity:1;fill:currentColor;-inkscape-font-specification:'Yanone Kaffeesatz';font-family:'Yanone Kaffeesatz';font-size:20.4937px;">
      <path
         d="M 4.3395423,17.924585 V 3.9888693 q 0,-0.204937 0.081975,-0.2869118 0.1024685,-0.081975 0.5738236,-0.1024685 0.4713551,-0.020494 1.639496,-0.020494 V 17.514711 q 0,0.204937 -0.081975,0.286912 -0.081975,0.08197 -0.5738236,0.102469 -0.4713551,0.02049 -1.639496,0.02049 z m -4.26268961,0 V 3.9888693 q 0,-0.204937 0.0819748,-0.2869118 Q 0.24080229,3.6199827 0.71215739,3.599489 1.2040062,3.5789953 2.3721471,3.5789953 V 17.514711 q 0,0.204937 -0.081975,0.286912 -0.081975,0.08197 -0.5738236,0.102469 -0.4713551,0.02049 -1.63949601,0.02049 z M 1.1630188,11.366601 V 9.2147628 h 4.2012085 l 0.020494,2.1518382 z"
         style="stroke-opacity:1;stroke:none;fill-opacity:1;-inkscape-font-specification:'Yanone Kaffeesatz Bold';font-weight:bold;"
         id="path18928" />
      <path
         d="M 7.8849518,17.924585 V 3.9888693 q 0,-0.204937 0.1229622,-0.3074055 0.1229622,-0.1024685 0.4508614,-0.1024685 h 1.9673956 q 1.024685,0 1.782951,0.2869118 0.758267,0.2664181 1.250116,0.9632039 0.491849,0.6967858 0.737773,1.9673952 0.245925,1.2706094 0.245925,3.2380048 0,2.04937 -0.225431,3.54541 -0.225431,1.49604 -0.696786,2.459244 -0.471355,0.963204 -1.209128,1.434559 -0.737773,0.450861 -1.782952,0.450861 z m 2.2952942,-2.172332 h 0.409874 q 0.245925,0 0.450862,-0.204937 0.22543,-0.204937 0.38938,-0.819748 0.163949,-0.614811 0.266418,-1.803445 0.102468,-1.188635 0.102468,-3.1355366 0,-1.3730779 -0.102468,-2.1928259 -0.08197,-0.819748 -0.245924,-1.229622 Q 11.3074,5.9357708 11.081969,5.8128086 10.856538,5.6693527 10.569626,5.6693527 h -0.38938 z"
         style="stroke-opacity:1;stroke:none;fill-opacity:1;-inkscape-font-specification:'Yanone Kaffeesatz Bold';font-weight:bold;"
         id="path18930" />
      <path
         d="m 15.938988,12.391286 q -0.348393,0 -0.409874,-0.122962 -0.06148,-0.122962 -0.06148,-0.450861 V 3.9888693 q 0,0 0.02049,-0.204937 0.02049,-0.204937 0.348393,-0.204937 h 1.762458 q 1.291103,0 2.172332,0.3688866 0.901723,0.3483929 1.352584,1.2706094 0.471355,0.9017228 0.471355,2.5822062 0,1.3935716 -0.348393,2.2952945 -0.327899,0.881229 -0.901722,1.393572 -0.55333,0.491848 -1.250116,0.696785 -0.676292,0.204937 -1.393572,0.204937 z m -0.676292,5.533299 V 3.9888693 q 0,0 0.04099,-0.204937 0.06148,-0.204937 0.368887,-0.204937 h 1.475546 q 0.307406,0 0.348393,0.204937 0.06148,0.204937 0.06148,0.204937 V 17.514711 q 0,0.204937 -0.102468,0.286912 -0.102469,0.08197 -0.594317,0.102469 -0.471356,0.02049 -1.598509,0.02049 z m 5.471818,0.06148 q -0.266418,0 -0.614811,-0.02049 -0.348393,-0.02049 -0.737773,-0.04099 -0.04099,-1.803445 -0.307406,-2.971586 -0.266418,-1.188635 -0.614811,-1.844433 -0.327899,-0.676292 -0.594317,-0.94271 -0.245925,-0.286912 -0.245925,-0.286912 0,0 -0.06148,-0.143456 -0.06148,-0.143456 0.204937,-0.286912 l 1.291103,-0.737773 q 0.3279,0 0.430368,0.225431 0,0 0.348393,0.348393 0.348393,0.327899 0.799254,1.106659 0.471355,0.758267 0.840242,2.008383 0.38938,1.250116 0.450861,3.074055 0,0.286912 -0.184443,0.409874 -0.163949,0.102468 -1.004191,0.102468 z M 17.55799,10.280435 h 0.409874 q 0.3279,0 0.55333,-0.204937 0.225431,-0.2049368 0.348393,-0.7582667 0.143456,-0.5738236 0.143456,-1.639496 0,-0.7377732 -0.102468,-1.2091283 Q 18.8286,5.9972519 18.623663,5.7923149 18.439219,5.5668842 18.11132,5.5668842 h -0.55333 z"
         style="stroke-opacity:1;stroke:none;fill-opacity:1;-inkscape-font-specification:'Yanone Kaffeesatz Bold';font-weight:bold;"
         id="path18932" />
    </g>
  </g>
</svg>
